R 語言特訓班 4：關聯資料庫與資料整合
…
watch.table <- read_csv("watch_table.csv")

## Parsed with column specification:
## cols(
##   watch_id = col_character(),
##   time_stamp = col_character(),
##   user_id = col_character(),
##   drama_id = col_character(),
##   device = col_character()
## )

watch.table

## # A tibble: 39 x 5
##    watch_id time_stamp     user_id drama_id device 
##    <chr>    <chr>          <chr>   <chr>    <chr>  
##  1 W0000001 2018/6/1 15:30 U0001   D00004   iOS    
##  2 W0000036 2018/6/1 16:30 U0015   D00005   Chrome 
##  3 W0000002 2018/6/1 17:28 U0001   D00004   iOS    
##  4 W0000035 2018/6/1 18:28 U0013   D00002   iOS    
##  5 W0000020 2018/6/1 20:19 U0006   D00005   iOS    
##  6 W0000003 2018/6/1 22:12 U0001   D00004   iOS    
##  7 W0000037 2018/6/1 23:01 U0015   D00005   Chrome 
##  8 W0000004 2018/6/2 0:51  U0002   D00003   Android
##  9 W0000005 2018/6/2 1:08  U0002   D00003   Android
## 10 W0000006 2018/6/2 1:48  U0002   D00003   Android
## # ... with 29 more rows
…
有了上述指令，我們就知道如何將 watch.table 與其他兩個報表合併了！

full.table <- watch.table %>% 
  left_join(
    user.table,
    by = "user_id"
  ) %>%
  left_join(
    drame.table,
    by = "drama_id"
  )

print(full.table)

## # A tibble: 39 x 14
##    watch_id time_stamp    user_id drama_id device  user_name  gender   age
##    <chr>    <chr>         <chr>   <chr>    <chr>   <chr>      <chr>  <int>
##  1 W0000001 2018/6/1 15:… U0001   D00004   iOS     David Hua… male      24
##  2 W0000036 2018/6/1 16:… U0015   D00005   Chrome  Yiwen Yu   male      37
##  3 W0000002 2018/6/1 17:… U0001   D00004   iOS     David Hua… male      24
##  4 W0000035 2018/6/1 18:… U0013   D00002   iOS     Joy Chiu   female    36
##  5 W0000020 2018/6/1 20:… U0006   D00005   iOS     Lobelia W… female    42
##  6 W0000003 2018/6/1 22:… U0001   D00004   iOS     David Hua… male      24
##  7 W0000037 2018/6/1 23:… U0015   D00005   Chrome  Yiwen Yu   male      37
##  8 W0000004 2018/6/2 0:51 U0002   D00003   Android His Shen   male      25
##  9 W0000005 2018/6/2 1:08 U0002   D00003   Android His Shen   male      25
## 10 W0000006 2018/6/2 1:48 U0002   D00003   Android His Shen   male      25
## # ... with 29 more rows, and 6 more variables: location <chr>,
## #   payment <int>, drama_name <chr>, area <chr>, actors <chr>,
## #   description <chr>
…
