R 語言特訓班 2：資料輸入與整理
…
iris2 <- as_tibble(iris)
iris2

## # A tibble: 150 x 5
##    Sepal.Length Sepal.Width Petal.Length Petal.Width Species
##           <dbl>       <dbl>        <dbl>       <dbl> <fct>  
##  1          5.1         3.5          1.4         0.2 setosa 
##  2          4.9         3            1.4         0.2 setosa 
##  3          4.7         3.2          1.3         0.2 setosa 
##  4          4.6         3.1          1.5         0.2 setosa 
##  5          5           3.6          1.4         0.2 setosa 
##  6          5.4         3.9          1.7         0.4 setosa 
##  7          4.6         3.4          1.4         0.3 setosa 
##  8          5           3.4          1.5         0.2 setosa 
##  9          4.4         2.9          1.4         0.2 setosa 
## 10          4.9         3.1          1.5         0.1 setosa 
## # ... with 140 more rows
…
bind_cols(iris2[, 1:2], iris2[, 3:4])

## # A tibble: 150 x 4
##    Sepal.Length Sepal.Width Petal.Length Petal.Width
##           <dbl>       <dbl>        <dbl>       <dbl>
##  1          5.1         3.5          1.4         0.2
##  2          4.9         3            1.4         0.2
##  3          4.7         3.2          1.3         0.2
##  4          4.6         3.1          1.5         0.2
##  5          5           3.6          1.4         0.2
##  6          5.4         3.9          1.7         0.4
##  7          4.6         3.4          1.4         0.3
##  8          5           3.4          1.5         0.2
##  9          4.4         2.9          1.4         0.2
## 10          4.9         3.1          1.5         0.1
## # ... with 140 more rows
…
tidyverse 架構下要讀取 EXCEL 檔案，會使用 readxl 套件。

# install.packages("readxl")
library(readxl)

# List the sheet names with excel_sheets().
excel_sheets("datasets.xlsx")

## [1] "iris"     "mtcars"   "chickwts" "quakes"

# read_excel() reads both xls and xlsx files and detects the format from the extension.
read_excel("datasets.xlsx")

## # A tibble: 150 x 5
##    Sepal.Length Sepal.Width Petal.Length Petal.Width Species
##           <dbl>       <dbl>        <dbl>       <dbl> <chr>  
##  1          5.1         3.5          1.4         0.2 setosa 
##  2          4.9         3            1.4         0.2 setosa 
##  3          4.7         3.2          1.3         0.2 setosa 
##  4          4.6         3.1          1.5         0.2 setosa 
##  5          5           3.6          1.4         0.2 setosa 
##  6          5.4         3.9          1.7         0.4 setosa 
##  7          4.6         3.4          1.4         0.3 setosa 
##  8          5           3.4          1.5         0.2 setosa 
##  9          4.4         2.9          1.4         0.2 setosa 
## 10          4.9         3.1          1.5         0.1 setosa 
## # ... with 140 more rows

可以選擇特定的活頁簿 (worksheets) 輸入（如果不指定活頁簿，會輸入檔案中的第一個活頁簿）。

read_excel("datasets.xlsx", sheet = "chickwts")

## # A tibble: 71 x 2
##    weight feed     
##     <dbl> <chr>    
##  1    179 horsebean
##  2    160 horsebean
##  3    136 horsebean
##  4    227 horsebean
##  5    217 horsebean
##  6    168 horsebean
##  7    108 horsebean
##  8    124 horsebean
##  9    143 horsebean
## 10    140 horsebean
## # ... with 61 more rows

read_excel("datasets.xlsx", sheet = 4)

## # A tibble: 1,000 x 5
##      lat  long depth   mag stations
##    <dbl> <dbl> <dbl> <dbl>    <dbl>
##  1 -20.4  182.   562   4.8       41
##  2 -20.6  181.   650   4.2       15
##  3 -26    184.    42   5.4       43
##  4 -18.0  182.   626   4.1       19
##  5 -20.4  182.   649   4         11
##  6 -19.7  184.   195   4         12
##  7 -11.7  166.    82   4.8       43
##  8 -28.1  182.   194   4.4       15
##  9 -28.7  182.   211   4.7       35
## 10 -17.5  180.   622   4.3       19
## # ... with 990 more rows
…
read_excel("datasets.xlsx", range = cell_rows(1:4))

## # A tibble: 3 x 5
##   Sepal.Length Sepal.Width Petal.Length Petal.Width Species
##          <dbl>       <dbl>        <dbl>       <dbl> <chr>  
## 1          5.1         3.5          1.4         0.2 setosa 
## 2          4.9         3            1.4         0.2 setosa 
## 3          4.7         3.2          1.3         0.2 setosa

read_excel("datasets.xlsx", range = cell_cols("B:D"))

## # A tibble: 150 x 3
##    Sepal.Width Petal.Length Petal.Width
##          <dbl>        <dbl>       <dbl>
##  1         3.5          1.4         0.2
##  2         3            1.4         0.2
##  3         3.2          1.3         0.2
##  4         3.1          1.5         0.2
##  5         3.6          1.4         0.2
##  6         3.9          1.7         0.4
##  7         3.4          1.4         0.3
##  8         3.4          1.5         0.2
##  9         2.9          1.4         0.2
## 10         3.1          1.5         0.1
## # ... with 140 more rows
read_excel("datasets.xlsx", range = "mtcars!B1:D5")

## # A tibble: 4 x 3
##     cyl  disp    hp
##   <dbl> <dbl> <dbl>
## 1     6   160   110
## 2     6   160   110
## 3     4   108    93
## 4     6   258   110

也可以將特定值設為 NA 值。

read_excel("datasets.xlsx", na = "setosa")

## # A tibble: 150 x 5
##    Sepal.Length Sepal.Width Petal.Length Petal.Width Species
##           <dbl>       <dbl>        <dbl>       <dbl> <chr>  
##  1          5.1         3.5          1.4         0.2 <NA>   
##  2          4.9         3            1.4         0.2 <NA>   
##  3          4.7         3.2          1.3         0.2 <NA>   
##  4          4.6         3.1          1.5         0.2 <NA>   
##  5          5           3.6          1.4         0.2 <NA>   
##  6          5.4         3.9          1.7         0.4 <NA>   
##  7          4.6         3.4          1.4         0.3 <NA>   
##  8          5           3.4          1.5         0.2 <NA>   
##  9          4.4         2.9          1.4         0.2 <NA>   
## 10          4.9         3.1          1.5         0.1 <NA>   
## # ... with 140 more rows
…
以上述 pew 資料的案例，我們可以用以下程式碼改正：

# Get column names
pew.colnames <- colnames(pew)

# Gather values and form it as a new column
pew.new <- pew %>%
  gather(key = "income",
         value = "cases",
         pew.colnames[2:ncol(pew)])

print(pew.new)

## # A tibble: 180 x 3
##    religion                income cases
##    <chr>                   <chr>  <int>
##  1 Agnostic                <$10k     27
##  2 Atheist                 <$10k     12
##  3 Buddhist                <$10k     27
##  4 Catholic                <$10k    418
##  5 Don’t know/refused      <$10k     15
##  6 Evangelical Prot        <$10k    575
##  7 Hindu                   <$10k      1
##  8 Historically Black Prot <$10k    228
##  9 Jehovah's Witness       <$10k     20
## 10 Jewish                  <$10k     19
## # ... with 170 more rows
…
下面是一個更混亂的資料集合：

tb <- read_csv("tb.csv")

## Parsed with column specification:
## cols(
##   .default = col_integer(),
##   iso2 = col_character()
## )

## See spec(...) for full column specifications.

print(tb)

## # A tibble: 5,769 x 23
##    iso2   year new_sp `m_0-4` `m_5-14` `m_0-14` `m_15-24` `m_25-34`
##    <chr> <int>  <int>   <int>    <int>    <int>     <int>     <int>
##  1 AD     1989     NA      NA       NA       NA        NA        NA
##  2 AD     1990     NA      NA       NA       NA        NA        NA
##  3 AD     1991     NA      NA       NA       NA        NA        NA
##  4 AD     1992     NA      NA       NA       NA        NA        NA
##  5 AD     1993     15      NA       NA       NA        NA        NA
##  6 AD     1994     24      NA       NA       NA        NA        NA
##  7 AD     1996      8      NA       NA        0         0         0
##  8 AD     1997     17      NA       NA        0         0         1
##  9 AD     1998      1      NA       NA        0         0         0
## 10 AD     1999      4      NA       NA        0         0         0
## # ... with 5,759 more rows, and 15 more variables: `m_35-44` <int>,
## #   `m_45-54` <int>, `m_55-64` <int>, m_65 <int>, m_unknown <int>,
## #   `f_0-4` <int>, `f_5-14` <int>, `f_0-14` <int>, `f_15-24` <int>,
## #   `f_25-34` <int>, `f_35-44` <int>, `f_45-54` <int>, `f_55-64` <int>,
## #   f_65 <int>, f_unknown <int>
…
兩個變數存在同一個值：m_0-4 存了兩個變數

第一個問題我們知道可以用 gather 來解決，。

tb.colnames <- colnames(tb)

tb.new <- tb %>%
  gather(
    tb.colnames[4:ncol(tb)],
    key = "type",
    value = "cases")

tb.new

## # A tibble: 115,380 x 5
##    iso2   year new_sp type  cases
##    <chr> <int>  <int> <chr> <int>
##  1 AD     1989     NA m_0-4    NA
##  2 AD     1990     NA m_0-4    NA
##  3 AD     1991     NA m_0-4    NA
##  4 AD     1992     NA m_0-4    NA
##  5 AD     1993     15 m_0-4    NA
##  6 AD     1994     24 m_0-4    NA
##  7 AD     1996      8 m_0-4    NA
##  8 AD     1997     17 m_0-4    NA
##  9 AD     1998      1 m_0-4    NA
## 10 AD     1999      4 m_0-4    NA
## # ... with 115,370 more rows
…
into：分隔成新columns的名稱

sep：用來分隔欄位的分隔符號，以正規表達式 (regular expression) 表示。

所以，上述的例子就可以像下面一樣把 gender 跟 age 分開來。

tb.new %>%
  separate(
    col = type,
    into = c("gender", "age"),
    sep = "_",
    convert = TRUE)

## # A tibble: 115,380 x 6
##    iso2   year new_sp gender age   cases
##    <chr> <int>  <int> <chr>  <chr> <int>
##  1 AD     1989     NA m      0-4      NA
##  2 AD     1990     NA m      0-4      NA
##  3 AD     1991     NA m      0-4      NA
##  4 AD     1992     NA m      0-4      NA
##  5 AD     1993     15 m      0-4      NA
##  6 AD     1994     24 m      0-4      NA
##  7 AD     1996      8 m      0-4      NA
##  8 AD     1997     17 m      0-4      NA
##  9 AD     1998      1 m      0-4      NA
## 10 AD     1999      4 m      0-4      NA
## # ... with 115,370 more rows
…
## Warning in rbind(names(probs), probs_f): number of columns of result is not
## a multiple of vector length (arg 1)

## Warning: 5770 parsing failures.
## row # A tibble: 5 x 5 col     row col    expected   actual  file         expected   <int> <chr>  <chr>      <chr>   <chr>        actual 1 49038 age_lb an integer unknown 'tb_new.csv' file 2 49039 age_lb an integer unknown 'tb_new.csv' row 3 49040 age_lb an integer unknown 'tb_new.csv' col 4 49041 age_lb an integer unknown 'tb_new.csv' expected 5 49042 age_lb an integer unknown 'tb_new.csv'
## ... ................. ... .............................................. ........ .............................................. ...... .............................................. .... .............................................. ... .............................................. ... .............................................. ........ ..............................................
## See problems(...) for more details.

print(tb)

## # A tibble: 103,844 x 7
##    iso2   year new_sp gender age_lb age_ub cases
##    <chr> <int>  <int> <chr>   <int>  <int> <int>
##  1 AD     1989     NA m           0      4    NA
##  2 AD     1990     NA m           0      4    NA
##  3 AD     1991     NA m           0      4    NA
##  4 AD     1992     NA m           0      4    NA
##  5 AD     1993     15 m           0      4    NA
##  6 AD     1994     24 m           0      4    NA
##  7 AD     1996      8 m           0      4    NA
##  8 AD     1997     17 m           0      4    NA
##  9 AD     1998      1 m           0      4    NA
## 10 AD     1999      4 m           0      4    NA
## # ... with 103,834 more rows
…
unite(data,
      col,
      ...,
      sep = "_",
      remove = TRUE)

其中比較重要的參數有： - col：合併完成後的新 column 名稱 - …：用來合併的原有 columns 名稱 - sep：用來分隔欄位的分隔符號，以正規表達式 (regular expression) 表示。

tb %>%
  unite(col = "age",
        c("age_lb", "age_ub"),
        sep = "-")

## # A tibble: 103,844 x 6
##    iso2   year new_sp gender age   cases
##    <chr> <int>  <int> <chr>  <chr> <int>
##  1 AD     1989     NA m      0-4      NA
##  2 AD     1990     NA m      0-4      NA
##  3 AD     1991     NA m      0-4      NA
##  4 AD     1992     NA m      0-4      NA
##  5 AD     1993     15 m      0-4      NA
##  6 AD     1994     24 m      0-4      NA
##  7 AD     1996      8 m      0-4      NA
##  8 AD     1997     17 m      0-4      NA
##  9 AD     1998      1 m      0-4      NA
## 10 AD     1999      4 m      0-4      NA
## # ... with 103,834 more rows
…
stock.data <- read_csv("TWSE_Stock Data_2012-2017.csv")

## Parsed with column specification:
## cols(
##   .default = col_double(),
##   security_id = col_character(),
##   type = col_character()
## )

## See spec(...) for full column specifications.

stock.data

## # A tibble: 96 x 1,237
##    security_id   type  `2015/12/31` `2015/12/30` `2015/12/29` `2015/12/28`
##    <chr>         <chr>        <dbl>        <dbl>        <dbl>        <dbl>
##  1 "1101 \xa5x\… open          25.4         25.8         25.8         25.8
##  2 "1101 \xa5x\… close         25.2         25.1         25.5         25.8
##  3 "1102 \xa8\x… open          25.4         25.7         25.9         25.9
##  4 "1102 \xa8\x… close         25.5         25.3         25.6         25.9
##  5 "1216 \xb2\x… open          51.2         51.0         51.4         52.1
##  6 "1216 \xb2\x… close         51.3         51.0         50.7         52.0
##  7 "1301 \xa5x\… open          66.3         66.6         66.7         66.7
##  8 "1301 \xa5x\… close         69.9         66.7         66.2         67.2
##  9 "1303 \xabn\… open          52.1         52.6         52.3         52.8
## 10 "1303 \xabn\… close         54.5         52.8         52.3         52.5
## # ... with 86 more rows, and 1,231 more variables: `2015/12/25` <dbl>,
## #   `2015/12/24` <dbl>, `2015/12/23` <dbl>, `2015/12/22` <dbl>,
## #   `2015/12/21` <dbl>, `2015/12/18` <dbl>, `2015/12/17` <dbl>,
## #   `2015/12/16` <dbl>, `2015/12/15` <dbl>, `2015/12/14` <dbl>,
## #   `2015/12/11` <dbl>, `2015/12/10` <dbl>, `2015/12/9` <dbl>,
## #   `2015/12/8` <dbl>, `2015/12/7` <dbl>, `2015/12/4` <dbl>,
## #   `2015/12/3` <dbl>, `2015/12/2` <dbl>, `2015/12/1` <dbl>,
## #   `2015/11/30` <dbl>, `2015/11/27` <dbl>, `2015/11/26` <dbl>,
## #   `2015/11/25` <dbl>, `2015/11/24` <dbl>, `2015/11/23` <dbl>,
…
